Fitting linear and non-linear equations by group
…
Fitting linear and non-linear equations by
group

We’ll fit some linear and non-linear models for dominant height, and
compare them. We’ll use the first 10 strata of the exemple dataset
exfm16.

library(forestmangr)
library(dplyr)
library(tidyr)

data(exfm14)
data_ex <- exfm14 %>% filter(strata%in%1:10)
data_ex
#> # A tibble: 485 × 4
#>   strata  plot   age    dh
#>    <dbl> <dbl> <dbl> <dbl>
#> 1      1     2    30  12.3
#> 2      1     2    42  16.3
#> 3      1     2    54  17.6
#> 4      1     2    66  18.9
#> 5      1     2    78  21.0
#> 6      1     2    90  20.5
#> # ℹ 479 more rows
…
