Ajuste de equações lineares e não lineares por grupo
…
Ajuste de equações lineares e não lineares por grupo

Vamos ajustar alguns modelos para estimar a altura dominante, lineares e não-lineares, e compará-los em seguida. Vamos utilizar os primeiros 10 talhões do dado de exmplo exfm16.

library(forestmangr)
library(dplyr)
library(tidyr)

data(exfm14)
dados <- exfm14 %>% filter(strata%in%1:10)
dados
#> # A tibble: 485 x 4
#>   strata  plot   age    dh
#>    <dbl> <dbl> <dbl> <dbl>
#> 1      1     2    30  12.3
#> 2      1     2    42  16.3
#> 3      1     2    54  17.6
#> 4      1     2    66  18.9
#> 5      1     2    78  21.0
#> 6      1     2    90  20.5
#> # ... with 479 more rows
…
