Forest Inventory: Height estimation and plot summarise
…
Forest Inventory: Height estimation and
plot summarise

For this example we’ll use forest inventory data, calculate volume
and other variables for each plot.

library(forestmangr)
library(dplyr)
data(exfm9)
data_ex <- exfm9
data_ex
#> # A tibble: 900 × 14
#>   MAP     PROJECT STRATA GENCODE STRATA_AREA PLANTING_DATE SPACING  PLOT
#>   <chr>     <int>  <int> <fct>         <int> <date>        <fct>   <int>
#> 1 FOREST1       1      2 FLO014           45 2007-04-01    3x3         1
#> 2 FOREST1       1      2 FLO014           45 2007-04-01    3x3         1
#> 3 FOREST1       1      2 FLO014           45 2007-04-01    3x3         1
#> 4 FOREST1       1      2 FLO014           45 2007-04-01    3x3         1
#> 5 FOREST1       1      2 FLO014           45 2007-04-01    3x3         1
#> 6 FOREST1       1      2 FLO014           45 2007-04-01    3x3         1
#> # ℹ 894 more rows
#> # ℹ 6 more variables: MEASUREMENT_DATE <date>, PLOT_AREA <int>, PIT <int>,
#> #   DBH <dbl>, TH <dbl>, OBS <fct>
The first step is to estimate the height of non measured trees. We’ll
evaluate two hypsometric models. Henricksen’s: \[ Ln(H) = \beta_0 + \beta_1*Ln(H) \]

And Campos & Leite’s model, which uses dominant height: \[ Ln(H) = \beta_0 + \beta_1*\frac{1}{dbh} +
\beta_2*Ln(DH) \] In order to use this model, first we’ll need to
calculate the dominant height for each plot. To do this we’ll use the
dom_height function. In it we’ll input the dataset, and
height, dbh, plot and observation variables. The observation variable
refers to the quality or classification of the tree, i.e., if it’s
normal, forked, dead or dominant. In addition to that, we’ll also input
the code used to distinguish dominant trees. In this dataset, the code
is "dom".

dom_height(df=data_ex,th="TH",dbh="DBH",plot="PLOT",obs="OBS",dom="D")
#> # A tibble: 10 × 2
#>    PLOT    DH
#>   <int> <dbl>
#> 1     1  25.0
#> 2     2  23.8
#> 3     3  20.7
#> 4     4  20.0
#> 5     5  19.6
#> 6     7  24.4
#> # ℹ 4 more rows
…
