Phytosociological analysis
…
Phytosociological analysis

For this example we’ll use a database of forestry inventories done in
the amazon forest, and make a phytosociological analysis of the
area.

library(forestmangr)
data(exfm20)
data_ex <- exfm20

data_ex
#> # A tibble: 12,295 × 18
#>   cod   transect  tree common.name scientific.name family   dbh canopy.pos light
#>   <fct> <fct>    <int> <fct>       <fct>           <fct>  <dbl> <fct>      <int>
#> 1 CAU_… T01          2 macucu      Licania guiane… Chrys…  10.3 S              2
#> 2 CAU_… T01          5 casca seca  Licania canesc… Chrys…  14.6 S              2
#> 3 CAU_… T01          6 cajuacu     Anacardium spr… Anaca…  78.8 E              1
#> 4 CAU_… T01          7 breu branco Protium panicu… Burse…  14.7 S              2
#> 5 CAU_… T01          9 breu branco Protium panicu… Burse…  10.6 E              3
#> 6 CAU_… T01         10 caramuxi    Pouteria hispi… Sapot…  27.1 C              2
#> # ℹ 12,289 more rows
#> # ℹ 9 more variables: dead <lgl>, Hcom <dbl>, Htot <dbl>, date <int>,
#> #   utm.east <dbl>, utm.north <dbl>, vol <dbl>, plot.area <int>,
#> #   total.area <int>
…
To evaluate the level of aggregation among species in the area, we
can use the species_aggreg function:

species_aggreg(data_ex, "scientific.name", "transect")
#> # A tibble: 172 × 7
#>   especie               Payandeh Pay.res    Hazen Haz.res       Morisita Mor.res
#>   <fct>                    <dbl> <chr>      <dbl> <chr>            <dbl> <chr>  
#> 1 Abarema cochleata          0.9 Regular      18  Not aggregat…      0   Rare   
#> 2 Abarema jupunba            0.9 Regular      19  Not aggregat…      0   Rare   
#> 3 Abuta grandifolia         16   Aggregated  337. Aggregated        11.9 Aggreg…
#> 4 Aiouea sp.                 9.5 Aggregated  200  Aggregated        10.4 Aggreg…
#> 5 Ambelania acida           10   Aggregated  210  Aggregated        22   Aggreg…
#> 6 Anacardium spruceanum      9.3 Aggregated  195. Aggregated         7.7 Aggreg…
#> # ℹ 166 more rows

We can also evaluate the horizontal structure of the forest. To do
this, we can use the forest_structure function:

forest_structure(data_ex, "scientific.name", "dbh", "transect", 10000)
#> # A tibble: 172 × 9
#>   especie                  AF     RF    AD     DR       ADo    RDo    IVC    IVI
#>   <fct>                 <dbl>  <dbl> <dbl>  <dbl> <dbl[1d]> <dbl[>  <dbl>  <dbl>
#> 1 Abarema cochleata     18.2  0.392  0.182 0.0343   0.0359  0.137  0.0859 0.188 
#> 2 Abarema jupunba       13.6  0.294  0.136 0.0258   0.0302  0.116  0.0707 0.145 
#> 3 Abuta grandifolia      9.09 0.196  1.36  0.258    0.0162  0.0621 0.160  0.172 
#> 4 Aiouea sp.             9.09 0.196  0.909 0.172    0.0413  0.158  0.165  0.175 
#> 5 Ambelania acida        4.55 0.0979 0.454 0.0859   0.00379 0.0145 0.0502 0.0661
#> 6 Anacardium spruceanum 27.3  0.588  1.23  0.232    0.159   0.608  0.420  0.476 
#> # ℹ 166 more rows

It’s also possible to calculate the vertical and internal
structures:

forest_structure(data_ex, "scientific.name", "dbh", "transect", 10000, "canopy.pos", "light") 
#> # A tibble: 172 × 19
#>   especie        AF     RF    AD     DR     ADo    RDo    IVC    IVI   VFC   VFE
#>   <fct>       <dbl>  <dbl> <dbl>  <dbl> <dbl[1> <dbl[>  <dbl>  <dbl> <dbl> <dbl>
#> 1 Abarema co… 18.2  0.392  0.182 0.0343 0.0359  0.137  0.0859 0.188   51.2   0  
#> 2 Abarema ju… 13.6  0.294  0.136 0.0258 0.0302  0.116  0.0707 0.145   25.6   0  
#> 3 Abuta gran…  9.09 0.196  1.36  0.258  0.0162  0.0621 0.160  0.172    0     0  
#> 4 Aiouea sp.   9.09 0.196  0.909 0.172  0.0413  0.158  0.165  0.175    0     0  
#> 5 Ambelania …  4.55 0.0979 0.454 0.0859 0.00379 0.0145 0.0502 0.0661   0     0  
#> 6 Anacardium… 27.3  0.588  1.23  0.232  0.159   0.608  0.420  0.476   38.4  13.4
#> # ℹ 166 more rows
#> # ℹ 8 more variables: VFS <dbl>, PSA <dbl>, PSR <dbl>, QF1 <dbl>, QF2 <dbl>,
#> #   QF3 <dbl>, QAF <dbl>, QRF <dbl>
…
