Análise fitossociológica
…
Análise fitossociológica

Vamos utilizar dados de inventário da amazônia, e fazer uma análise
fitossociológica da área.

library(forestmangr)
data(exfm20)
dados <- exfm20

dados
#> # A tibble: 12,295 × 18
#>   cod     transect  tree common…¹ scien…² family   dbh canop…³ light dead   Hcom
#>   <fct>   <fct>    <int> <fct>    <fct>   <fct>  <dbl> <fct>   <int> <lgl> <dbl>
#> 1 CAU_A01 T01          2 macucu   Licani… Chrys…  10.3 S           2 FALSE  4.59
#> 2 CAU_A01 T01          5 casca s… Licani… Chrys…  14.6 S           2 FALSE  9.16
#> 3 CAU_A01 T01          6 cajuacu  Anacar… Anaca…  78.8 E           1 FALSE 21.1 
#> 4 CAU_A01 T01          7 breu br… Protiu… Burse…  14.7 S           2 FALSE  7.35
#> 5 CAU_A01 T01          9 breu br… Protiu… Burse…  10.6 E           3 FALSE  4.9 
#> 6 CAU_A01 T01         10 caramuxi Pouter… Sapot…  27.1 C           2 FALSE 13.5 
#> # … with 12,289 more rows, 7 more variables: Htot <dbl>, date <int>,
#> #   utm.east <dbl>, utm.north <dbl>, vol <dbl>, plot.area <int>,
#> #   total.area <int>, and abbreviated variable names ¹​common.name,
#> #   ²​scientific.name, ³​canopy.pos
…
Para avaliar o nível de agregação das espécies área, podemos utilizar
a função species_aggreg:

species_aggreg(dados, "scientific.name", "transect")
#> # A tibble: 172 × 7
#>   especie               Payandeh Pay.res    Hazen Haz.res        Moris…¹ Mor.res
#>   <fct>                    <dbl> <chr>      <dbl> <chr>            <dbl> <chr>  
#> 1 Abarema cochleata          0.9 Regular      18  Not aggregated     0   Rare   
#> 2 Abarema jupunba            0.9 Regular      19  Not aggregated     0   Rare   
#> 3 Abuta grandifolia         16   Aggregated  337. Aggregated        11.9 Aggreg…
#> 4 Aiouea sp.                 9.5 Aggregated  200  Aggregated        10.4 Aggreg…
#> 5 Ambelania acida           10   Aggregated  210  Aggregated        22   Aggreg…
#> 6 Anacardium spruceanum      9.3 Aggregated  195. Aggregated         7.7 Aggreg…
#> # … with 166 more rows, and abbreviated variable name ¹​Morisita

Podemos também avaliar a estrutura horizontal da floresta. Para isso,
utilizamos a função forest_structure:

forest_structure(dados, "scientific.name", "dbh", "transect", 10000)
#> # A tibble: 172 × 9
#>   especie                  AF     RF    AD     DR       ADo    RDo    IVC    IVI
#>   <fct>                 <dbl>  <dbl> <dbl>  <dbl> <dbl[1d]> <dbl[>  <dbl>  <dbl>
#> 1 Abarema cochleata     18.2  0.392  0.182 0.0343   0.0359  0.137  0.0859 0.188 
#> 2 Abarema jupunba       13.6  0.294  0.136 0.0258   0.0302  0.116  0.0707 0.145 
#> 3 Abuta grandifolia      9.09 0.196  1.36  0.258    0.0162  0.0621 0.160  0.172 
#> 4 Aiouea sp.             9.09 0.196  0.909 0.172    0.0413  0.158  0.165  0.175 
#> 5 Ambelania acida        4.55 0.0979 0.454 0.0859   0.00379 0.0145 0.0502 0.0661
#> 6 Anacardium spruceanum 27.3  0.588  1.23  0.232    0.159   0.608  0.420  0.476 
#> # … with 166 more rows

Também é possível calcular a estrutura vertical e interna:

forest_structure(dados, "scientific.name", "dbh", "transect", 10000, "canopy.pos", "light") 
#> # A tibble: 172 × 19
#>   especie        AF     RF    AD     DR     ADo    RDo    IVC    IVI   VFC   VFE
#>   <fct>       <dbl>  <dbl> <dbl>  <dbl> <dbl[1> <dbl[>  <dbl>  <dbl> <dbl> <dbl>
#> 1 Abarema co… 18.2  0.392  0.182 0.0343 0.0359  0.137  0.0859 0.188   51.2   0  
#> 2 Abarema ju… 13.6  0.294  0.136 0.0258 0.0302  0.116  0.0707 0.145   25.6   0  
#> 3 Abuta gran…  9.09 0.196  1.36  0.258  0.0162  0.0621 0.160  0.172    0     0  
#> 4 Aiouea sp.   9.09 0.196  0.909 0.172  0.0413  0.158  0.165  0.175    0     0  
#> 5 Ambelania …  4.55 0.0979 0.454 0.0859 0.00379 0.0145 0.0502 0.0661   0     0  
#> 6 Anacardium… 27.3  0.588  1.23  0.232  0.159   0.608  0.420  0.476   38.4  13.4
#> # … with 166 more rows, and 8 more variables: VFS <dbl>, PSA <dbl>, PSR <dbl>,
#> #   QF1 <dbl>, QF2 <dbl>, QF3 <dbl>, QAF <dbl>, QRF <dbl>
…
