Amostragem
…
dados_acs_piloto <- exfm3
dados_acs_def <- exfm4
dados_ace_piloto <- exfm1
dados_ace_def <- exfm2
dados_as <- exfm5

Amostragem Casual Simples

O objetivo deste exemplo é realizar uma amostragem casual simples de uma área, de 46,8 ha com um erro de 20%. Foram lançadas 10 parcelas de 3000 m² para um inventário piloto. Os dados são o seguinte:

dados_acs_piloto
#> # A tibble: 10 x 3
#>   TOTAL_AREA PLOT_AREA   VWB
#>        <dbl>     <int> <int>
#> 1       46.8      3000    41
#> 2       46.8      3000    33
#> 3       46.8      3000    24
#> 4       46.8      3000    31
#> 5       46.8      3000    10
#> 6       46.8      3000    32
#> # ... with 4 more rows
…
Com esses resultados, percebe-se que para atingirmos o erro desejado, precisaremos de mais 15 amostras. Após uma nova amostragem, os novos dados são os seguintes:

dados_acs_def
#> # A tibble: 25 x 3
#>   TOTAL_AREA PLOT_AREA   VWB
#>        <dbl>     <int> <int>
#> 1       46.8      3000    41
#> 2       46.8      3000    33
#> 3       46.8      3000    24
#> 4       46.8      3000    31
#> 5       46.8      3000    10
#> 6       46.8      3000    32
#> # ... with 19 more rows
…
Amostragem Casual Estratificada

O objetivo deste exemplo é realizar uma amostragem casual sistemática de uma área, com um erro de 5%. A área foi dividida em 3 estratos: 1 com 14,4 ha e 7 parcelas, um com 16,4 ha e 8 parcelas, e outro com 14,2 ha e 7 parcelas. As parcelas tem uma área de 1000 m². Ao total foram 22 parcelas para o inventário piloto. Os dados são o seguinte:

dados_ace_piloto
#> # A tibble: 22 x 4
#>   STRATA STRATA_AREA PLOT_AREA   VWB
#>    <int>       <dbl>     <int> <dbl>
#> 1      1        14.4      1000  7.9 
#> 2      1        14.4      1000  3.8 
#> 3      1        14.4      1000  4.4 
#> 4      1        14.4      1000  6.25
#> 5      1        14.4      1000  5.55
#> 6      1        14.4      1000  8.1 
#> # ... with 16 more rows
…
Analisando a tabela 1, vemos que para atingir o erro de 5%, precisaremos amostrar mais 24 parcelas. 4 no estrato 1, 8 no estrato 2, e 12 no estrato 3.

Com as parcelas lançadas, os dados para o inventário definitivo são esses:

dados_ace_def
#> # A tibble: 57 x 4
#>   STRATA STRATA_AREA PLOT_AREA   VWB
#>    <int>       <dbl>     <int> <dbl>
#> 1      1        14.4      1000  7.9 
#> 2      1        14.4      1000  3.8 
#> 3      1        14.4      1000  4.4 
#> 4      1        14.4      1000  6.25
#> 5      1        14.4      1000  5.55
#> 6      1        14.4      1000  8.1 
#> # ... with 51 more rows
…
O erro desejado foi atingido.

Amostragem Sistemática

Agora iremos amostrar uma área de 18 hectares em que 18 parcelas de 200 metros quadrados foram lançadas sistematicamente:

dados_as
#> # A tibble: 18 x 3
#>   TOTAL_AREA PLOT_AREA   VWB
#>        <int>     <int> <int>
#> 1         18       200     6
#> 2         18       200     8
#> 3         18       200     9
#> 4         18       200    10
#> 5         18       200    13
#> 6         18       200    12
#> # ... with 12 more rows
…
