Volume estimation and volumetric models
…
Volume estimation and volumetric models

Let’s calculate the section volume of felled trees using Smalian’s method, according to the formula: \[ V_{secao} = \frac{AS_{i} + AS_{i+1}}{2} . L \]

We’ll use the exfm7 dataframe as an exemple:

library(forestmangr)
data(exfm7)
data_ex <- exfm7
data_ex
#> # A tibble: 3,393 x 11
#>   MAP     PROJECT SPACING STRATA GENCODE  TREE   DBH    TH    hi di_wb bark_t
#>   <chr>   <fct>   <fct>    <int> <fct>   <int> <dbl> <dbl> <dbl> <dbl>  <dbl>
#> 1 FOREST1 PEQUI   3x3          4 FM00100     1  12.4  22.1   0.1  13.1      6
#> 2 FOREST1 PEQUI   3x3          4 FM00100     1  12.4  22.1   0.5  12.6      6
#> 3 FOREST1 PEQUI   3x3          4 FM00100     1  12.4  22.1   1    12.4      5
#> 4 FOREST1 PEQUI   3x3          4 FM00100     1  12.4  22.1   1.5  12.3      5
#> 5 FOREST1 PEQUI   3x3          4 FM00100     1  12.4  22.1   2    11.8      4
#> 6 FOREST1 PEQUI   3x3          4 FM00100     1  12.4  22.1   4    11.3      4
#> # ... with 3,387 more rows
…
To calculate the volume of each tree, we’ll use the vol_summarise function. We input the data, and dbhm height, volume with bark, volume without bark and tree variables:

data_ex_vol_arvore <- vol_summarise(data_ex_sma, dbh = "DBH", th = "TH", 
                                  vwb="VWB",tree = "TREE",vwob="VWOB")
data_ex_vol_arvore
#> # A tibble: 197 x 10
#>    TREE   DBH    TH    CSA   VWB  VWOB  FFWB FFWOB FFWB_mean FFWOB_mean
#>   <int> <dbl> <dbl>  <dbl> <dbl> <dbl> <dbl> <dbl>     <dbl>      <dbl>
#> 1     1  12.4  22.1 0.0121 0.131 0.113 0.489 0.424     0.468      0.412
#> 2     2  13.1  22.3 0.0134 0.145 0.126 0.487 0.423     0.468      0.412
#> 3     3  13.2  20   0.0137 0.126 0.108 0.459 0.393     0.468      0.412
#> 4     4  13.2  19.4 0.0137 0.139 0.123 0.521 0.463     0.468      0.412
#> 5     5  13.4  23.7 0.0140 0.156 0.133 0.470 0.401     0.468      0.412
#> 6     6  13.5  21.5 0.0144 0.139 0.124 0.450 0.401     0.468      0.412
#> # ... with 191 more rows
…
