Evaluating yield and growth
…
Evaluating yield and growth

First we load the packages and data:

library(forestmangr)
library(dplyr)
data(exfm16)

data_ex <- exfm16
data_ex
#> # A tibble: 139 × 7
#>   strata  plot   age    DH     N     V     B
#>    <int> <int> <dbl> <dbl> <int> <dbl> <dbl>
#> 1      1     1  26.4  12.4  1020  19.7   5.7
#> 2      1     1  38.4  17.2  1020  60.8   9.8
#> 3      1     1  51.6  19.1  1020 103.   13.9
#> 4      1     1  63.6  21.8  1020 136.   15.3
#> 5      1     2  26.4  15     900  27.3   6  
#> 6      1     2  38.4  20.3   900  80    10.5
#> # … with 133 more rows
…
Now, we estimate basal area and volume with the
est_clutter function. We’ll also calculate the Monthly Mean
Increment (MMI) and Current Monthly Increment (CMI) values.

We input the data, a vector for the desired age range, and the basal
area, site classification variables, and a vector with the Clutter
function fitted coefficients, created previously:

data_ex_est <- est_clutter(data_ex_class, 20:125,"B", "S", "category_", coefs_clutter) 
data_ex_est
#> # A tibble: 318 × 10
#> # Groups:   category_ [3]
#>   category_  Site G_mean   Age LN_B2_EST B2_EST V2_EST   CMI   MMI CMI_MMI
#>   <chr>     <dbl>  <dbl> <int>     <dbl>  <dbl>  <dbl> <dbl> <dbl>   <dbl>
#> 1 Lower      23.0   9.13    20      2.21   9.13   26.6 NA     1.33   NA   
#> 2 Lower      23.0   9.13    21      2.25   9.48   29.8  3.24  1.42    1.82
#> 3 Lower      23.0   9.13    22      2.28   9.81   33.1  3.30  1.50    1.79
#> 4 Lower      23.0   9.13    23      2.31  10.1    36.4  3.33  1.58    1.75
#> 5 Lower      23.0   9.13    24      2.34  10.4    39.8  3.35  1.66    1.70
#> 6 Lower      23.0   9.13    25      2.37  10.7    43.2  3.36  1.73    1.64
#> # … with 312 more rows
…
