Avaliando crescimento e produção
…
Avaliando crescimento e produção

Primeiro Carregamos os pacotes e dados:

library(forestmangr)
library(dplyr)
data(exfm16)

dados <- exfm16
dados
#> # A tibble: 139 x 7
#>   strata  plot   age    DH     N     V     B
#>    <int> <int> <dbl> <dbl> <int> <dbl> <dbl>
#> 1      1     1  26.4  12.4  1020  19.7   5.7
#> 2      1     1  38.4  17.2  1020  60.8   9.8
#> 3      1     1  51.6  19.1  1020 103.   13.9
#> 4      1     1  63.6  21.8  1020 136.   15.3
#> 5      1     2  26.4  15     900  27.3   6  
#> 6      1     2  38.4  20.3   900  80    10.5
#> # ... with 133 more rows
…
Agora, estimamos área basal e volume com a função est_clutter. Também iremos calcular os valores de Incremento Médio Mensal (MMI) e Incremento Corrente Mensal (CMI).

Fornecemos a ela os dados, um vetor com a idade desejada, as variáveis área basal inicial, site e de classificação (criada anteriormente), e um dataframe com os coeficientes do ajuste de clutter (criado anteriormente):

dados_est <- est_clutter(dados_class, 20:125,"B", "S", "category_", coefs_clutter) 
dados_est
#> # A tibble: 318 x 10
#> # Groups:   category_ [3]
#>   category_  Site G_mean   Age LN_B2_EST B2_EST V2_EST   CMI   MMI CMI_MMI
#>   <chr>     <dbl>  <dbl> <int>     <dbl>  <dbl>  <dbl> <dbl> <dbl>   <dbl>
#> 1 Lower      23.0   9.13    20      2.21   9.13   26.6 NA     1.33   NA   
#> 2 Lower      23.0   9.13    21      2.25   9.48   29.8  3.24  1.42    1.82
#> 3 Lower      23.0   9.13    22      2.28   9.81   33.1  3.30  1.50    1.79
#> 4 Lower      23.0   9.13    23      2.31  10.1    36.4  3.33  1.58    1.75
#> 5 Lower      23.0   9.13    24      2.34  10.4    39.8  3.35  1.66    1.70
#> 6 Lower      23.0   9.13    25      2.37  10.7    43.2  3.36  1.73    1.64
#> # ... with 312 more rows
…
